
{
    "background_color":{
        "red":1.0,
        "green":1.0,
        "blue":1.0,
        "alpha":1.0
    },
    "lines":[
        {
            "name":"addssadsa",
            "circular":false,
            "outline_color":{
                "red":0.800000011920929,
                "green":0.6000000238418579,
                "blue":0.800000011920929,
                "alpha":1.0
            },
            "station_names":[
                "asdasdasd"
            ],
            "outline_thickness":3.0,
            "startX":126.0,
            "startY":133.0,
            "endX":611.0,
            "endY":126.0
        },
        {
            "name":"asdasdasdas",
            "circular":false,
            "outline_color":{
                "red":0.501960813999176,
                "green":0.7019608020782471,
                "blue":0.501960813999176,
                "alpha":1.0
            },
            "station_names":[
                "asdasdasd"
            ],
            "outline_thickness":3.0,
            "startX":62.0,
            "startY":189.0,
            "endX":99.0,
            "endY":488.0
        }
    ],
    "stations":[
        {
            "name":"asdasdasd",
            "x":189.0,
            "y":185.0,
            "width":10.0,
            "height":10.0,
            "fill_color":{
                "red":0.800000011920929,
                "green":0.20000000298023224,
                "blue":0.20000000298023224,
                "alpha":1.0
            },
            "rotate":270.0,
            "labelState":2.0
        }
    ],
    "labels":[
        {
            "x":213.0,
            "y":907.0,
            "text":"4.0",
            "fill_color":{
                "red":0.4000000059604645,
                "green":0.6000000238418579,
                "blue":0.4000000059604645,
                "alpha":1.0
            },
            "bold":true,
            "italic":false,
            "font_size":500.0,
            "font_family":"Comic Sans MS"
        }
    ],
    "images":[
        {
            "x":0.0,
            "y":0.0,
            "width":512.0,
            "height":512.0,
            "image_path":"/home/hooligan/NetBeansProjects/metromapmaker/metromapmaker/images/communication-512.png",
            "backgroundBool":true
        },
        {
            "x":1056.0,
            "y":246.0,
            "width":32.0,
            "height":32.0,
            "image_path":"/home/hooligan/NetBeansProjects/metromapmaker/metromapmaker/images/addStation.png",
            "backgroundBool":false
        }
    ]
}